SS001~DT001~Morning
SS002~DT001~Afternoon
SS003~DT001~Evening
SS004~DT002~Morning
SS005~DT002~Afternoon
SS006~DT002~Evening
SS007~DT003~Morning
SS008~DT003~Afternoon
SS009~DT003~Evening
SS010~DT004~Morning
SS011~DT004~Afternoon
SS012~DT004~Evening
SS013~DT005~Morning
SS014~DT005~Afternoon
SS015~DT005~Evening
SS016~DT006~Morning
SS017~DT006~Afternoon
SS018~DT006~Evening
SS019~DT007~Morning
SS020~DT007~Afternoon
SS021~DT007~Evening
SS022~DT008~Morning
SS023~DT008~Afternoon
SS024~DT008~Evening
SS025~DT009~Morning
SS026~DT009~Afternoon
SS027~DT009~Evening
SS028~DT010~Morning
SS029~DT010~Afternoon
SS030~DT010~Evening
SS031~DT011~Morning
SS032~DT011~Afternoon
SS033~DT011~Evening
SS034~DT012~Morning
SS035~DT012~Afternoon
SS036~DT012~Evening
SS037~DT013~Morning
SS038~DT013~Afternoon
SS039~DT013~Evening
SS040~DT014~Morning
SS041~DT014~Afternoon
SS042~DT014~Evening
SS043~DT015~Morning
SS044~DT015~Afternoon
SS045~DT015~Evening
SS046~DT016~Morning
SS047~DT016~Afternoon
SS048~DT016~Evening